<?xml version="1.0" encoding="UTF-8"?>
<svg version="1.1" viewBox="0 0 28.747 28.747" xmlns="http://www.w3.org/2000/svg">
    <defs>
        <filter id="filter6206-7" color-interpolation-filters="sRGB">
            <feGaussianBlur stdDeviation="0.658125"/>
        </filter>
    </defs>
    <g transform="translate(0 -1093.8)">
        <path transform="matrix(1.0781 0 0 1.0641 -.093733 2.7509)" d="m4.4177 1028.2v1.6051h-1.6052v18.192h1.6052v2.1402h18.192v-2.1402h2.1402v-18.192h-2.1402v-1.6051z" fill="#1a237e" filter="url(#filter6206-7)" opacity=".2"/>
        <rect x="2.9987" y="1096.8" width="22.749" height="22.749" rx="1.1973" ry="1.1974" fill="#232323"/>
        <g transform="translate(-22.32 1056.5)">
            <path d="m0 0h51.2v51.2h-51.2z" fill="none" stroke-width="1.0667"/>
            <g transform="matrix(.33601 0 0 .33601 1.5296 73.043)">
                <path d="m0 0h51.2v51.2h-51.2z" fill="none" stroke-width="1.0667"/>
            </g>
            <g transform="matrix(.37187 0 0 .37187 38.802 63.239)">
                <path d="m0 0h51.2v51.2h-51.2z" fill="none" stroke-width="1.0667"/>
                <g transform="matrix(2.6891 0 0 2.6891 -82.906 -48.45)">
                    <path d="m0 0h51.2v51.2h-51.2z" fill="none" stroke-width="1.0667"/>
                </g>
            </g>
        </g>
        <path d="m4.1958 1096.8c-0.66332 0-1.1979 0.5346-1.1979 1.1979v0.3334c0-0.6634 0.53459-1.1979 1.1979-1.1979h20.354c0.66332 0 1.1979 0.5345 1.1979 1.1979v-0.3334c0-0.6633-0.5346-1.1979-1.1979-1.1979z" fill="#fff" opacity=".2"/>
        <rect x="128" y="546.52" width="42.667" height="42.667" fill="none" stroke-width="1.0667"/>
        <rect x="128" y="631.85" width="42.667" height="42.667" fill="none" stroke-width="1.0667"/>
        <rect x="128" y="674.52" width="42.667" height="42.667" fill="none" stroke-width="1.0667"/>
        <rect x="128" y="589.19" width="42.667" height="42.667" fill="none" stroke-width="1.0667"/>
        <rect x="128" y="717.19" width="42.667" height="42.667" fill="none" stroke-width="1.0667"/>
        <rect x="213.33" y="546.52" width="42.667" height="42.667" fill="none" stroke-width="1.0667"/>
        <rect x="213.33" y="631.85" width="42.667" height="42.667" fill="none" stroke-width="1.0667"/>
        <rect x="213.33" y="674.52" width="42.667" height="42.667" fill="none" stroke-width="1.0667"/>
        <rect x="213.33" y="589.19" width="42.667" height="42.667" fill="none" stroke-width="1.0667"/>
        <rect x="213.33" y="717.19" width="42.667" height="42.667" fill="none" stroke-width="1.0667"/>
        <rect x="298.67" y="546.52" width="42.667" height="42.667" fill="none" stroke-width="1.0667"/>
        <rect x="298.67" y="631.85" width="42.667" height="42.667" fill="none" stroke-width="1.0667"/>
        <rect x="298.67" y="674.52" width="42.667" height="42.667" fill="none" stroke-width="1.0667"/>
        <rect x="298.67" y="589.19" width="42.667" height="42.667" fill="none" stroke-width="1.0667"/>
        <rect x="298.67" y="717.19" width="42.667" height="42.667" fill="none" stroke-width="1.0667"/>
        <rect x="170.67" y="546.52" width="42.667" height="42.667" fill="none" stroke-width="1.0667"/>
        <rect x="170.67" y="631.85" width="42.667" height="42.667" fill="none" stroke-width="1.0667"/>
        <rect x="170.67" y="674.52" width="42.667" height="42.667" fill="none" stroke-width="1.0667"/>
        <rect x="170.67" y="589.19" width="42.667" height="42.667" fill="none" stroke-width="1.0667"/>
        <rect x="170.67" y="717.19" width="42.667" height="42.667" fill="none" stroke-width="1.0667"/>
        <rect x="256" y="546.52" width="42.667" height="42.667" fill="none" stroke-width="1.0667"/>
        <rect x="256" y="631.85" width="42.667" height="42.667" fill="none" stroke-width="1.0667"/>
        <rect x="256" y="674.52" width="42.667" height="42.667" fill="none" stroke-width="1.0667"/>
        <rect x="256" y="589.19" width="42.667" height="42.667" fill="none" stroke-width="1.0667"/>
        <rect x="256" y="717.19" width="42.667" height="42.667" fill="none" stroke-width="1.0667"/>
        <rect x="128" y="759.85" width="42.667" height="42.667" fill="none" stroke-width="1.0667"/>
        <rect x="213.33" y="759.85" width="42.667" height="42.667" fill="none" stroke-width="1.0667"/>
        <rect x="298.67" y="759.85" width="42.667" height="42.667" fill="none" stroke-width="1.0667"/>
        <rect x="170.67" y="759.85" width="42.667" height="42.667" fill="none" stroke-width="1.0667"/>
        <rect x="256" y="759.85" width="42.667" height="42.667" fill="none" stroke-width="1.0667"/>
        <rect x="341.33" y="589.19" width="42.667" height="42.667" fill="none" stroke-width="1.0667"/>
        <rect x="341.33" y="631.85" width="42.667" height="42.667" fill="none" stroke-width="1.0667"/>
        <rect x="341.33" y="717.19" width="42.667" height="42.667" fill="none" stroke-width="1.0667"/>
        <rect x="341.33" y="546.52" width="42.667" height="42.667" fill="none" stroke-width="1.0667"/>
        <rect x="341.33" y="674.52" width="42.667" height="42.667" fill="none" stroke-width="1.0667"/>
        <rect x="341.33" y="759.85" width="42.667" height="42.667" fill="none" stroke-width="1.0667"/>
        <rect x="160" y="578.52" width="192" height="192" fill="none" stroke-width="1.0667"/>
        <g transform="matrix(.37344 0 0 .37344 4.7333 1097.4)">
            <path d="m0 0h51.2v51.2h-51.2z" fill="none" stroke-width="1.0667"/>
        </g>
        <g transform="matrix(.36471 0 0 .36471 5.1356 1097.4)">
            <path d="m0 0h51.2v51.2h-51.2z" fill="none" stroke-width="1.0667"/>
        </g>
        <g transform="matrix(.41585 0 0 .41585 84.325 1055.9)">
            <g transform="matrix(.062269 0 0 .062269 -28.238 185.29)">
                <g transform="matrix(38.618 0 0 38.618 14724 -13542)">
                    <g transform="matrix(.71436 0 0 .71436 -400.52 188.34)">
                        <path d="m1293.2-120.67c-181.75 0.2763-511.18 0.13525-699.05 0.13998-2.3216 10.413-3.593 21.251-3.593 32.384v114c207.65 0.73695 494.72 0.38136 706.23 0.3733v-114.37c0-11.18-1.2522-22.07-3.593-32.523zm-458.69 295.56c-78.385-4e-3 -158.85 0.17892-243.95 0.55995v138.63c286.34-0.39317 421.73-0.13827 706.23-0.32664v-137.75c-163.2-0.53005-311.22-1.1113-462.28-1.1199z" opacity="0" stroke-width="1.4932"/>
                    </g>
                </g>
            </g>
        </g>
        <path d="m24.549 1119.5c0.66325 0 1.1979-0.5346 1.1979-1.1979v-0.3333c0 0.6632-0.53461 1.1978-1.1979 1.1978h-20.354c-0.66325 0-1.1979-0.5346-1.1979-1.1978v0.3333c0 0.6633 0.53461 1.1979 1.1979 1.1979z" fill="#1a237e" opacity=".2"/>
    </g>
    <flowRoot fill="#000000" font-family="Roboto" font-size="12.8px" letter-spacing="0px" stroke-width="1.0667px" word-spacing="0px" style="line-height:0.01%" xml:space="preserve"><flowRegion><rect x="11.375" y="11.984" width="4.7893" height="5.388" stroke-width="1.1378px"/></flowRegion><flowPara font-size="4px" style="line-height:1.25">your</flowPara></flowRoot>
    <path d="m10.935 19.98c-0.87664-0.5903-0.90232-0.6453-0.40701-0.87167 0.2-0.09141 0.75479-0.51821 1.2329-0.94846 0.86923-0.78227 0.86923-0.78227 1.2608-0.3042 1.07 1.3064 1.0588 1.2727 0.57085 1.722-1.182 1.0884-1.5548 1.1448-2.6575 0.40235zm4.9668 0.23787c-1.0633-0.65025-4.5926-5.1501-4.3488-5.5447 0.04674-0.07562 0.61183-0.1375 1.2558-0.1375 1.1708 0 1.1708 0 1.8332 0.93936 0.96132 1.3631 2.1812 2.65 3.1085 3.2791 0.44532 0.30212 0.81024 0.58566 0.81094 0.63011 0.0026 0.16375-1.6148 1.1313-1.8901 1.1307-0.15659-3.31e-4 -0.50289-0.13403-0.76956-0.2971zm-6.2201-1.7526c0.00424-1.1697 0.12482-1.3628 0.78527-1.2572 1.4559 0.23276 1.4106 0.19851 0.92777 0.70252-0.23638 0.24673-0.71901 0.61115-1.0725 0.80983-0.64273 0.36124-0.64273 0.36124-0.64053-0.25517zm8.7189 0.25169c-0.61863-0.36885-1.9331-1.5882-1.9331-1.7931 0-0.19541 1.1593-1.9033 1.2919-1.9033 0.19283 0 1.1227 2.1586 1.2704 2.949 0.1871 1.0015 0.05674 1.1563-0.62914 0.74737zm-8.1554-1.9878c-1.0604-0.21775-2.0857-0.61415-2.2418-0.86678-0.11574-0.18727 1.0161-0.75058 1.8377-0.91465 0.31112-0.06212 0.68176-0.14524 0.82367-0.1847 0.21479-0.05973 1.2347 1.2829 1.5737 2.0716 0.07629 0.17752-0.85531 0.12823-1.9933-0.10544zm8.4211-1.019c-0.43655-0.89011-0.43655-0.89011 0.1773-0.77708 0.33762 0.06217 0.93194 0.25263 1.3207 0.42325 0.83815 0.36784 0.74246 0.62929-0.36892 1.008-0.69254 0.23597-0.69254 0.23597-1.1291-0.65414zm-3.1351 0.18877c-0.94342-1.1445-0.9432-1.1302-0.04063-2.7392 0.81759-1.4575 1.6234-3.5624 1.6234-4.2408 0-0.4845 0.17752-0.45931 1.1429 0.16217 0.81593 0.52526 0.81593 0.52526 0.75726 1.4302-0.04173 0.64369-0.25265 1.3092-0.73065 2.3053-0.62908 1.311-2.0439 3.6585-2.205 3.6585-0.03977 0-0.28603-0.25928-0.54725-0.57619zm-7.7586-1.7708c0.041966-0.95198 0.1009-1.133 0.4523-1.3896 0.75399-0.55048 2.2292-0.82324 4.9139-0.90857 2.9285-0.09308 2.7801-0.20147 1.8463 1.3489-0.49692 0.825-0.49692 0.825-2.3159 0.92889-1.6188 0.09246-3.488 0.49022-4.6542 0.99036-0.26594 0.11405-0.28657 0.03149-0.24243-0.96994zm12.738 0.89779c-0.13157-0.0832-0.71339-0.27624-1.2929-0.429-0.57955-0.15275-1.0755-0.29318-1.102-0.31206-0.02656-0.01888 0.18538-0.50819 0.47098-1.0874 0.51928-1.053 0.51928-1.053 1.1716-0.82289 1.0681 0.37684 1.234 0.6165 1.234 1.7821 0 1.0408-0.05458 1.1393-0.48164 0.86926zm-10.726-3.7492c-0.055576-0.20758-0.10108-0.66833-0.10111-1.0239-4.75e-5 -0.60908 0.053575-0.68133 0.9271-1.2491l0.92715-0.60259 0.10598 0.76421c0.05829 0.42031 0.21676 1.0678 0.35214 1.4388 0.24616 0.67461 0.24616 0.67461-0.42922 0.77836-0.37146 0.05706-0.90164 0.14151-1.1782 0.18766-0.42518 0.07095-0.51841 0.02564-0.60386-0.29351zm3.6117-0.11161c0-0.48468 2.6922-2.9325 3.2252-2.9325 0.2535 0 0.08997 1.0471-0.34703 2.2222-0.31555 0.8485-0.31555 0.8485-1.5969 0.8485-0.70473 0-1.2813-0.06221-1.2813-0.13824zm-0.88123-0.54636c-0.31976-0.76453-0.63523-2.2165-0.50899-2.3427 0.14749-0.14749 0.80278 0.19964 1.4506 0.7684 0.64927 0.57007 0.67414 0.45089-0.37016 1.7741-0.31888 0.40405-0.31888 0.40405-0.57142-0.19975z" fill="#fff" stroke-width=".16162"/>
    <g display="none" fill="none">
        <rect transform="rotate(90)" x="7.8232" y="-20.923" width="13.1" height="13.1" display="inline" stroke="#000" stroke-width=".070382"/>
        <rect x="7.2241" y="8.6528" width="14.298" height="11.441" stroke="#5261ff" stroke-linecap="round" stroke-linejoin="round" stroke-width=".069589"/>
        <rect transform="rotate(90)" x="7.2241" y="-20.094" width="14.298" height="11.441" display="inline" stroke="#0f0" stroke-linecap="round" stroke-linejoin="round" stroke-width=".069589"/>
    </g>
</svg>
